A DS Book Example
…
Next we can change the -1 values to NA, R’s way of representing missing data.

bmi_dta <- 
  bmi_dta %>% 
  mutate_each(funs(ifelse(. == -1, NA, .)))

## `mutate_each()` is deprecated.
## Use `mutate_all()`, `mutate_at()` or `mutate_if()` instead.
## To map `funs` over all variables, use `mutate_all()`

bmi_dta

## # A tibble: 2,056,400 x 5
##     year bmi_t0 bmi_t1 age_t0 gender
##    <int>  <dbl>  <dbl>  <dbl>  <int>
##  1  2011   30.7   24.9   39        0
##  2  2012   24.9   NA     40        0
##  3  2003   20.8   23.0   26        1
##  4  2004   23.0   23.3   27.2      1
##  5  2005   23.3   22.8   28        1
##  6  2006   22.8   22.1   29        1
##  7  2007   22.1   22.2   30        1
##  8  2008   22.2   23.2   31        1
##  9  2009   23.2   23.8   32        1
## 10  2010   23.8   21.9   33        1
## # ... with 2,056,390 more rows
…
In the above, the summary for the gender colunn gives a mean of 0.3692, indicating that around 37% of the participants are of the gender indicated by the value 1. However, a more appropriate way of summarising this column might be to give a tally of each category of participants.

We can get a sense of the kind of meta-data R has attached to each column by looking back at the table output when we printed bmi_dta above. Immediately below the column names is a line containing either <int> or <dbl>. <int> means ‘integer’, and means that only whole numbers (0, 1, 2, 3, etc.) are accepted in that column, and <dbl> means ‘double’, which means that non-integer numeric values, like 2.15, are also acceptable as inputs.

We can change the metadata associated with the gender column to indicate a different data type, suitable for this type of information, in the following way

bmi_dta %>% 
  mutate(gender = factor(gender))

## # A tibble: 2,056,400 x 5
##     year bmi_t0 bmi_t1 age_t0 gender
##    <int>  <dbl>  <dbl>  <dbl> <fct> 
##  1  2011   30.7   24.9   39   0     
##  2  2012   24.9   NA     40   0     
##  3  2003   20.8   23.0   26   1     
##  4  2004   23.0   23.3   27.2 1     
##  5  2005   23.3   22.8   28   1     
##  6  2006   22.8   22.1   29   1     
##  7  2007   22.1   22.2   30   1     
##  8  2008   22.2   23.2   31   1     
##  9  2009   23.2   23.8   32   1     
## 10  2010   23.8   21.9   33   1     
## # ... with 2,056,390 more rows
…
Based on this, we might feel more confident assuming that a 0 in the gender column indicates females, and so a 1 indicates males. Depending on how sure we need to be about this, we might either decide to go with these coding assumptions, or to seek further information to (dis)confirm this suspicion.

For now, let’s recode the gender according to our current best assumptions:

bmi_dta <- 
  bmi_dta %>% 
    mutate(gender = case_when(
      gender == 0 ~ 'female', 
      gender == 1 ~ 'male'
      ) %>% factor()
    ) 

bmi_dta

## # A tibble: 2,056,400 x 5
##     year bmi_t0 bmi_t1 age_t0 gender
##    <int>  <dbl>  <dbl>  <dbl> <fct> 
##  1  2011   30.7   24.9   39   female
##  2  2012   24.9   NA     40   female
##  3  2003   20.8   23.0   26   male  
##  4  2004   23.0   23.3   27.2 male  
##  5  2005   23.3   22.8   28   male  
##  6  2006   22.8   22.1   29   male  
##  7  2007   22.1   22.2   30   male  
##  8  2008   22.2   23.2   31   male  
##  9  2009   23.2   23.8   32   male  
## 10  2010   23.8   21.9   33   male  
## # ... with 2,056,390 more rows
…
For example, both the dplyr and the stats package contain functions called filter, but these are different functions with different behaviours. Looking through the search list, we see that the dplyr package is enountered earlier in the list than the stats package, and so dplyrs filter function will, for our current R session, be used instead of stats’ filter function. But what if:

We want to ensure that the code always refers to the dplyr filter function, regardless of the order in which packages have been loaded in a session?

We want to use the stats filter function, while also having loaded the dyplr package?

We want to use a particular function within a package, without having to load the package itself?

Each of these challenges can be solved by being more explicit about which package we want to use a function from, which we can do using the :: operator, known as the scope operator. For example, if we wanted to see the first few rows of the bmi_dta data_frame we created earlier, with gender now explicitly labelled rather than simply coded with 0 and 1, we could filter to only include females as follows:

bmi_dta %>% 
  filter(gender == "female")

## # A tibble: 1,296,641 x 5
##     year bmi_t0 bmi_t1 age_t0 gender
##    <int>  <dbl>  <dbl>  <dbl> <fct> 
##  1  2011   30.7   24.9     39 female
##  2  2012   24.9   NA       40 female
##  3  2010   23.0   40.5     55 female
##  4  2011   40.5   44.7     57 female
##  5  2012   44.7   NA       58 female
##  6  2014   46.5   NA       59 female
##  7  2005   29.3   32.7     19 female
##  8  2006   32.7   NA       20 female
##  9  2008   31.6   33.9     22 female
## 10  2009   33.9   NA       23 female
## # ... with 1,296,631 more rows

However, this only works because of the particular package search space we have created by loading the packages in the order we did in our session. If someone loads the packages in a different order and runs the same code, they may not get the same outcome. We can make the above line of code more explicit by using the scope operator as follows:

bmi_dta %>% 
  dplyr::filter(gender == "female")

## # A tibble: 1,296,641 x 5
##     year bmi_t0 bmi_t1 age_t0 gender
##    <int>  <dbl>  <dbl>  <dbl> <fct> 
##  1  2011   30.7   24.9     39 female
##  2  2012   24.9   NA       40 female
##  3  2010   23.0   40.5     55 female
##  4  2011   40.5   44.7     57 female
##  5  2012   44.7   NA       58 female
##  6  2014   46.5   NA       59 female
##  7  2005   29.3   32.7     19 female
##  8  2006   32.7   NA       20 female
##  9  2008   31.6   33.9     22 female
## 10  2009   33.9   NA       23 female
## # ... with 1,296,631 more rows
…
